{"request": {"method": "POST", "url": "/products", "headers": {"Content-Type": "application/json"}, "body": {"title": "P1", "description": "D1", "price": 10.0, "stock": 1, "condition": "NEW", "imageUrls": [], "sellerName": "S1", "sellerRating": 5.0, "shippingCost": 0.0, "estimatedDelivery": "D"}}, "response": {"status_code": 201}}
{"request": {"method": "POST", "url": "/products", "headers": {"Content-Type": "application/json"}, "body": {"title": "P2", "description": "D2", "price": 20.0, "stock": 1, "condition": "NEW", "imageUrls": [], "sellerName": "S1", "sellerRating": 5.0, "shippingCost": 0.0, "estimatedDelivery": "D"}}, "response": {"status_code": 201}}
{"request": {"method": "POST", "url": "/products", "headers": {"Content-Type": "application/json"}, "body": {"title": "P3", "description": "D3", "price": 30.0, "stock": 1, "condition": "NEW", "imageUrls": [], "sellerName": "S1", "sellerRating": 5.0, "shippingCost": 0.0, "estimatedDelivery": "D"}}, "response": {"status_code": 201}}
{"request": {"method": "GET", "url": "/products?size=2", "headers": {}, "body": {}}, "response": {"status_code": 200, "body": {"content": [{"id": 1, "title": "P1", "description": "D1", "price": 10.0, "stock": 1, "condition": "NEW", "imageUrls": [], "seller": {"name": "S1", "rating": 5.0}, "shipping": {"cost": 0.0, "estimatedDelivery": "D"}}, {"id": 2, "title": "P2", "description": "D2", "price": 20.0, "stock": 1, "condition": "NEW", "imageUrls": [], "seller": {"name": "S1", "rating": 5.0}, "shipping": {"cost": 0.0, "estimatedDelivery": "D"}}], "totalElements": 3, "totalPages": 2, "pageNumber": 0, "pageSize": 2}}}